// -- Store[GTE6097]'s Radio Map (in Statistics): -- <OmniSensor_ID> <mean> <std>
#Location_(x,y)_[Unit:centimeter]_: 2821.00 5273.00 1443531932 1443532109
A6097000004 -72.57 10.67
A6097000005 -74.05 9.24
A6097000002 -74.66 9.90
A6097000003 -74.57 8.71
A6097000008 -76.67 6.07
A6097000006 -73.41 8.52
A6097000007 -70.62 8.00
A6097000001 -75.53 8.29

#Location_(x,y)_[Unit:centimeter]_: 3461.00 4725.00 1443532173 1443532344
A6097000004 -62.31 8.71
A6097000005 -69.46 4.88
A6097000002 -66.25 5.61
A6097000003 -72.93 6.35
A6097000008 -68.75 3.78
A6097000006 -65.01 8.76
A6097000007 -60.11 6.93
A6097000001 -71.47 4.35

#Location_(x,y)_[Unit:centimeter]_: 4386.00 4733.00 1443532383 1443532560
A6097000004 -66.60 4.46
A6097000005 -67.12 3.80
A6097000002 -65.49 5.23
A6097000003 -70.52 5.16
A6097000008 -66.64 3.76
A6097000006 -66.55 6.58
A6097000007 -58.08 6.28
A6097000001 -72.80 3.57

#Location_(x,y)_[Unit:centimeter]_: 4772.00 4692.00 1443532579 1443532756
A6097000004 -67.55 4.64
A6097000005 -68.16 5.35
A6097000002 -67.34 5.84
A6097000003 -71.38 6.27
A6097000008 -67.01 5.05
A6097000006 -67.13 5.89
A6097000007 -56.73 7.37
A6097000001 -73.46 3.45

#Location_(x,y)_[Unit:centimeter]_: 5444.00 4694.00 1443532781 1443532960
A6097000004 -68.52 5.37
A6097000005 -64.65 5.79
A6097000002 -66.51 5.42
A6097000003 -69.63 7.52
A6097000008 -64.76 5.13
A6097000006 -68.84 7.10
A6097000007 -61.20 5.93
A6097000001 -74.59 3.78

#Location_(x,y)_[Unit:centimeter]_: 6020.00 4714.00 1443532980 1443533161
A6097000004 -68.80 4.54
A6097000005 -65.21 4.31
A6097000002 -65.68 5.47
A6097000003 -67.05 6.73
A6097000008 -61.30 5.87
A6097000006 -69.44 5.57
A6097000007 -61.94 5.44
A6097000001 -73.79 3.47

#Location_(x,y)_[Unit:centimeter]_: 6919.00 4621.00 1443533179 1443533358
A6097000004 -72.36 4.88
A6097000005 -65.33 4.59
A6097000002 -69.14 4.87
A6097000003 -66.76 7.33
A6097000008 -55.97 8.62
A6097000006 -71.89 5.88
A6097000007 -66.38 5.15
A6097000001 -76.01 3.23

#Location_(x,y)_[Unit:centimeter]_: 6892.00 5288.00 1443533392 1443533575
A6097000004 -78.85 3.29
A6097000005 -77.18 3.06
A6097000002 -77.06 3.66
A6097000003 -74.27 5.12
A6097000008 -69.80 3.37
A6097000006 -76.60 3.99
A6097000007 -76.55 4.96
A6097000001 -78.81 3.01

#Location_(x,y)_[Unit:centimeter]_: 7680.00 3706.00 1443533653 1443533833
A6097000004 -72.86 5.13
A6097000005 -68.95 4.59
A6097000002 -71.65 4.49
A6097000003 -68.17 7.77
A6097000008 -60.76 5.08
A6097000006 -71.91 6.36
A6097000007 -68.30 5.02
A6097000001 -77.03 3.41

#Location_(x,y)_[Unit:centimeter]_: 7727.00 2835.00 1443533862 1443534039
A6097000004 -72.82 6.18
A6097000005 -66.06 6.28
A6097000002 -70.16 5.88
A6097000003 -62.03 8.46
A6097000008 -62.24 6.57
A6097000006 -73.85 4.90
A6097000007 -71.03 4.47
A6097000001 -75.42 3.75

#Location_(x,y)_[Unit:centimeter]_: 7672.00 1628.00 1443534075 1443534257
A6097000004 -74.02 4.28
A6097000005 -66.52 3.79
A6097000002 -69.35 4.60
A6097000003 -55.31 8.64
A6097000008 -63.85 4.74
A6097000006 -73.87 5.49
A6097000007 -70.74 5.35
A6097000001 -75.81 3.38

#Location_(x,y)_[Unit:centimeter]_: 7794.00 1293.00 1443534274 1443534453
A6097000004 -74.04 5.12
A6097000005 -68.21 4.43
A6097000002 -69.85 6.76
A6097000003 -57.96 7.59
A6097000008 -62.99 5.72
A6097000006 -75.55 5.08
A6097000007 -71.31 5.25
A6097000001 -75.32 3.70

#Location_(x,y)_[Unit:centimeter]_: 6661.00 606.00 1443534498 1443534681
A6097000004 -73.90 5.96
A6097000005 -66.39 4.51
A6097000002 -70.48 4.87
A6097000003 -53.83 8.20
A6097000008 -66.10 4.93
A6097000006 -75.19 5.81
A6097000007 -71.99 5.69
A6097000001 -75.77 3.55

#Location_(x,y)_[Unit:centimeter]_: 6423.00 1175.00 1443534713 1443534893
A6097000004 -73.13 4.62
A6097000005 -64.32 5.06
A6097000002 -68.52 3.97
A6097000003 -51.32 6.23
A6097000008 -68.75 4.27
A6097000006 -75.28 4.70
A6097000007 -71.33 4.35
A6097000001 -75.33 3.14

#Location_(x,y)_[Unit:centimeter]_: 6777.00 1445.00 1443534948 1443535209
A6097000004 -73.89 4.96
A6097000005 -65.70 4.41
A6097000002 -68.74 5.30
A6097000003 -51.31 7.95
A6097000008 -67.99 4.26
A6097000006 -75.07 5.04
A6097000007 -71.57 5.44
A6097000001 -75.90 2.97

#Location_(x,y)_[Unit:centimeter]_: 6904.00 1878.00 1443535228 1443535407
A6097000004 -74.81 3.28
A6097000005 -68.01 4.59
A6097000002 -72.50 4.23
A6097000003 -54.98 8.06
A6097000008 -66.90 3.73
A6097000006 -74.41 3.78
A6097000007 -74.26 5.64
A6097000001 -76.53 1.95

#Location_(x,y)_[Unit:centimeter]_: 6875.00 2574.00 1443535433 1443535613
A6097000004 -74.22 5.01
A6097000005 -67.33 5.03
A6097000002 -71.49 4.83
A6097000003 -58.72 7.55
A6097000008 -63.70 5.59
A6097000006 -74.28 5.59
A6097000007 -72.88 4.75
A6097000001 -76.59 3.27

#Location_(x,y)_[Unit:centimeter]_: 6894.00 3468.00 1443535643 1443535826
A6097000004 -74.60 4.17
A6097000005 -69.47 4.41
A6097000002 -72.47 4.75
A6097000003 -64.34 6.69
A6097000008 -61.00 6.75
A6097000006 -74.28 4.31
A6097000007 -72.45 5.61
A6097000001 -76.33 2.22

#Location_(x,y)_[Unit:centimeter]_: 6293.00 3534.00 1443535854 1443536033
A6097000004 -69.05 4.85
A6097000005 -63.04 2.89
A6097000002 -66.47 3.13
A6097000003 -65.29 7.04
A6097000008 -59.19 6.61
A6097000006 -70.20 5.02
A6097000007 -64.09 5.39
A6097000001 -74.40 3.18

#Location_(x,y)_[Unit:centimeter]_: 6285.00 2743.00 1443536076 1443536256
A6097000004 -69.68 4.85
A6097000005 -59.71 5.06
A6097000002 -66.57 4.57
A6097000003 -64.06 7.58
A6097000008 -62.26 4.56
A6097000006 -73.03 4.51
A6097000007 -66.48 5.46
A6097000001 -74.67 2.81

#Location_(x,y)_[Unit:centimeter]_: 6307.00 1661.00 1443536296 1443536466
A6097000004 -71.79 4.15
A6097000005 -58.03 5.87
A6097000002 -65.58 5.23
A6097000003 -58.74 7.41
A6097000008 -66.09 4.00
A6097000006 -73.85 4.58
A6097000007 -68.83 4.47
A6097000001 -74.44 3.39

#Location_(x,y)_[Unit:centimeter]_: 6192.00 989.00 1443536488 1443536667
A6097000004 -73.35 3.35
A6097000005 -62.11 4.19
A6097000002 -66.16 3.88
A6097000003 -58.22 5.37
A6097000008 -67.16 2.95
A6097000006 -74.62 4.44
A6097000007 -69.62 4.17
A6097000001 -75.21 2.76

#Location_(x,y)_[Unit:centimeter]_: 5619.00 864.00 1443536707 1443536872
A6097000004 -70.99 4.65
A6097000005 -61.57 4.09
A6097000002 -64.83 4.97
A6097000003 -63.71 6.36
A6097000008 -69.67 3.78
A6097000006 -74.38 5.17
A6097000007 -69.54 5.63
A6097000001 -73.35 3.36

#Location_(x,y)_[Unit:centimeter]_: 5648.00 1515.00 1443536955 1443537138
A6097000004 -70.79 5.56
A6097000005 -51.68 6.61
A6097000002 -63.93 8.03
A6097000003 -65.74 6.53
A6097000008 -67.84 3.73
A6097000006 -74.61 5.57
A6097000007 -67.12 6.19
A6097000001 -74.90 4.07

#Location_(x,y)_[Unit:centimeter]_: 5614.00 2687.00 1443537207 1443537374
A6097000004 -71.90 5.86
A6097000005 -58.22 6.15
A6097000002 -67.08 5.29
A6097000003 -68.08 6.30
A6097000008 -68.15 4.43
A6097000006 -74.58 5.84
A6097000007 -66.98 6.24
A6097000001 -75.90 3.12

#Location_(x,y)_[Unit:centimeter]_: 5648.00 3498.00 1443537446 1443537662
A6097000004 -68.67 5.10
A6097000005 -58.90 5.55
A6097000002 -65.24 4.96
A6097000003 -67.08 6.06
A6097000008 -65.06 4.82
A6097000006 -70.91 6.25
A6097000007 -63.22 6.83
A6097000001 -74.16 3.53

#Location_(x,y)_[Unit:centimeter]_: 4968.00 3499.00 1443537693 1443537869
A6097000004 -66.81 5.25
A6097000005 -64.27 7.22
A6097000002 -64.11 6.29
A6097000003 -70.52 6.85
A6097000008 -67.25 4.23
A6097000006 -69.57 7.32
A6097000007 -55.52 6.82
A6097000001 -73.76 3.84

#Location_(x,y)_[Unit:centimeter]_: 4959.00 2701.00 1443537896 1443538091
A6097000004 -65.05 4.63
A6097000005 -60.45 5.33
A6097000002 -61.30 6.94
A6097000003 -69.50 4.61
A6097000008 -69.29 3.48
A6097000006 -71.30 4.94
A6097000007 -61.93 5.84
A6097000001 -72.93 3.62

#Location_(x,y)_[Unit:centimeter]_: 5228.00 1490.00 1443538139 1443538323
A6097000004 -69.07 6.49
A6097000005 -60.61 5.61
A6097000002 -61.63 5.78
A6097000003 -67.46 6.15
A6097000008 -69.45 4.10
A6097000006 -73.85 5.05
A6097000007 -68.14 4.92
A6097000001 -73.54 3.21

#Location_(x,y)_[Unit:centimeter]_: 5208.00 981.00 1443538346 1443538532
A6097000004 -69.76 4.54
A6097000005 -62.91 4.71
A6097000002 -61.48 4.91
A6097000003 -67.44 6.47
A6097000008 -70.57 3.38
A6097000006 -74.06 4.88
A6097000007 -69.74 5.19
A6097000001 -73.08 3.79

#Location_(x,y)_[Unit:centimeter]_: 3974.00 940.00 1443538650 1443538837
A6097000004 -66.52 5.48
A6097000005 -66.49 4.12
A6097000002 -52.24 6.12
A6097000003 -69.55 6.36
A6097000008 -71.99 4.04
A6097000006 -71.92 5.32
A6097000007 -66.62 4.80
A6097000001 -70.35 3.63

#Location_(x,y)_[Unit:centimeter]_: 3921.00 1537.00 1443538881 1443539066
A6097000004 -67.02 6.11
A6097000005 -66.47 3.82
A6097000002 -49.34 6.45
A6097000003 -70.56 5.87
A6097000008 -71.76 4.58
A6097000006 -72.88 5.97
A6097000007 -65.47 6.62
A6097000001 -71.82 4.45

#Location_(x,y)_[Unit:centimeter]_: 3928.00 2708.00 1443539098 1443539433
A6097000004 -66.99 5.90
A6097000005 -65.90 4.94
A6097000002 -57.37 5.48
A6097000003 -72.26 5.64
A6097000008 -73.34 3.87
A6097000006 -73.33 5.58
A6097000007 -64.23 7.90
A6097000001 -73.74 4.04

#Location_(x,y)_[Unit:centimeter]_: 3846.00 3513.00 1443539474 1443539655
A6097000004 -63.50 6.08
A6097000005 -64.28 5.40
A6097000002 -59.22 5.93
A6097000003 -69.98 6.22
A6097000008 -67.95 3.93
A6097000006 -66.56 9.61
A6097000007 -54.04 10.41
A6097000001 -71.26 4.05

#Location_(x,y)_[Unit:centimeter]_: 3321.00 3541.00 1443539684 1443539858
A6097000004 -61.10 6.09
A6097000005 -69.15 4.00
A6097000002 -65.03 5.90
A6097000003 -72.02 6.37
A6097000008 -70.74 3.85
A6097000006 -60.64 7.60
A6097000007 -59.58 7.47
A6097000001 -70.79 4.36

#Location_(x,y)_[Unit:centimeter]_: 3598.00 2666.00 1443539916 1443540100
A6097000004 -55.36 7.51
A6097000005 -66.92 5.20
A6097000002 -61.92 5.94
A6097000003 -72.32 5.12
A6097000008 -71.56 4.03
A6097000006 -67.39 7.01
A6097000007 -64.34 6.13
A6097000001 -68.12 4.88

#Location_(x,y)_[Unit:centimeter]_: 3612.00 1622.00 1443540126 1443540307
A6097000004 -57.39 7.31
A6097000005 -66.20 4.68
A6097000002 -56.47 7.24
A6097000003 -71.23 6.43
A6097000008 -71.61 4.30
A6097000006 -68.20 5.79
A6097000007 -66.31 5.41
A6097000001 -66.14 5.15

#Location_(x,y)_[Unit:centimeter]_: 3599.00 992.00 1443540334 1443540519
A6097000004 -63.52 6.07
A6097000005 -70.14 4.78
A6097000002 -59.06 6.59
A6097000003 -72.07 6.61
A6097000008 -73.73 4.70
A6097000006 -68.73 5.88
A6097000007 -69.45 4.51
A6097000001 -65.88 6.03

#Location_(x,y)_[Unit:centimeter]_: 3003.00 1114.00 1443540587 1443540764
A6097000004 -62.69 6.51
A6097000005 -69.68 4.20
A6097000002 -61.89 5.95
A6097000003 -72.18 6.40
A6097000008 -73.64 4.56
A6097000006 -68.16 7.23
A6097000007 -69.73 4.41
A6097000001 -62.72 5.47

#Location_(x,y)_[Unit:centimeter]_: 2977.00 1731.00 1443540791 1443540971
A6097000004 -60.64 8.51
A6097000005 -70.85 5.03
A6097000002 -62.62 6.54
A6097000003 -74.15 6.61
A6097000008 -74.59 5.34
A6097000006 -67.05 8.99
A6097000007 -70.39 5.86
A6097000001 -60.16 7.45

#Location_(x,y)_[Unit:centimeter]_: 2979.00 2608.00 1443541003 1443541180
A6097000004 -51.42 6.25
A6097000005 -67.68 4.69
A6097000002 -62.70 5.78
A6097000003 -73.50 5.68
A6097000008 -72.72 4.11
A6097000006 -64.79 7.44
A6097000007 -65.86 6.54
A6097000001 -64.72 5.03

#Location_(x,y)_[Unit:centimeter]_: 3020.00 3615.00 1443541207 1443541450
A6097000004 -57.79 7.21
A6097000005 -70.36 3.67
A6097000002 -65.79 5.25
A6097000003 -73.22 5.98
A6097000008 -72.59 4.74
A6097000006 -61.70 7.97
A6097000007 -64.01 8.41
A6097000001 -68.52 5.45

#Location_(x,y)_[Unit:centimeter]_: 2361.00 3534.00 1443541495 1443541685
A6097000004 -64.00 5.85
A6097000005 -71.70 4.26
A6097000002 -67.57 5.75
A6097000003 -73.87 6.24
A6097000008 -70.70 3.68
A6097000006 -47.01 7.36
A6097000007 -66.02 4.54
A6097000001 -66.30 5.77

#Location_(x,y)_[Unit:centimeter]_: 2352.00 2737.00 1443541708 1443541891
A6097000004 -57.16 6.03
A6097000005 -68.79 4.08
A6097000002 -64.43 5.13
A6097000003 -72.68 4.67
A6097000008 -71.65 3.16
A6097000006 -57.23 6.97
A6097000007 -64.76 4.95
A6097000001 -64.54 5.61

#Location_(x,y)_[Unit:centimeter]_: 2403.00 1701.00 1443541913 1443542093
A6097000004 -62.70 6.17
A6097000005 -70.37 5.07
A6097000002 -63.66 6.89
A6097000003 -73.46 5.03
A6097000008 -73.93 4.13
A6097000006 -63.98 6.40
A6097000007 -68.79 4.62
A6097000001 -55.21 6.62

#Location_(x,y)_[Unit:centimeter]_: 2398.00 844.00 1443542190 1443542371
A6097000004 -64.38 4.80
A6097000005 -72.10 3.92
A6097000002 -64.36 6.95
A6097000003 -73.24 5.12
A6097000008 -74.67 4.89
A6097000006 -64.53 6.55
A6097000007 -70.86 3.53
A6097000001 -55.23 5.96

#Location_(x,y)_[Unit:centimeter]_: 6585.00 364.00 1443543191 1443543368
A6097000004 -72.63 6.58
A6097000005 -63.14 7.10
A6097000002 -65.50 6.12
A6097000003 -58.78 7.77
A6097000008 -67.85 4.00
A6097000006 -73.89 6.34
A6097000007 -71.20 5.73
A6097000001 -72.97 4.76

#Location_(x,y)_[Unit:centimeter]_: 6122.00 352.00 1443543414 1443543610
A6097000004 -72.32 5.86
A6097000005 -66.81 5.64
A6097000002 -64.97 6.51
A6097000003 -62.32 7.37
A6097000008 -70.53 3.91
A6097000006 -74.85 4.70
A6097000007 -72.05 5.39
A6097000001 -73.11 4.13

#Location_(x,y)_[Unit:centimeter]_: 4796.00 368.00 1443543651 1443543830
A6097000004 -70.46 6.24
A6097000005 -62.44 5.36
A6097000002 -61.77 7.20
A6097000003 -59.31 7.43
A6097000008 -68.08 3.46
A6097000006 -73.13 6.80
A6097000007 -69.39 6.01
A6097000001 -71.75 5.82

#Location_(x,y)_[Unit:centimeter]_: 4292.00 347.00 1443543855 1443544036
A6097000004 -67.06 6.73
A6097000005 -61.80 5.43
A6097000002 -58.82 7.37
A6097000003 -61.79 5.57
A6097000008 -68.41 3.33
A6097000006 -70.90 6.96
A6097000007 -68.60 5.50
A6097000001 -69.10 6.02

#Location_(x,y)_[Unit:centimeter]_: 3712.00 296.00 1443544068 1443544248
A6097000004 -67.50 5.69
A6097000005 -67.69 4.18
A6097000002 -59.61 7.13
A6097000003 -68.04 4.83
A6097000008 -70.75 3.91
A6097000006 -70.96 5.94
A6097000007 -69.76 4.96
A6097000001 -67.63 7.78

#Location_(x,y)_[Unit:centimeter]_: 2961.00 471.00 1443544276 1443544454
A6097000004 -65.66 6.39
A6097000005 -69.01 3.72
A6097000002 -60.11 5.37
A6097000003 -69.16 5.97
A6097000008 -72.10 3.28
A6097000006 -68.77 6.65
A6097000007 -69.92 5.08
A6097000001 -63.81 5.91

#Location_(x,y)_[Unit:centimeter]_: 2172.00 501.00 1443544484 1443544653
A6097000004 -65.14 6.44
A6097000005 -70.31 3.88
A6097000002 -62.66 4.34
A6097000003 -70.77 5.63
A6097000008 -73.02 4.48
A6097000006 -67.13 7.30
A6097000007 -70.74 3.83
A6097000001 -60.22 6.07

#Location_(x,y)_[Unit:centimeter]_: 745.00 7.00 1443544680 1443544859
A6097000004 -68.98 5.50
A6097000005 -73.09 3.31
A6097000002 -64.58 5.80
A6097000003 -73.28 5.83
A6097000008 -75.63 3.88
A6097000006 -68.46 8.24
A6097000007 -71.72 4.44
A6097000001 -61.39 5.33

#Location_(x,y)_[Unit:centimeter]_: 1405.00 933.00 1443544890 1443545069
A6097000004 -68.55 6.09
A6097000005 -74.49 3.66
A6097000002 -66.68 4.88
A6097000003 -74.86 4.81
A6097000008 -76.08 3.79
A6097000006 -66.26 8.43
A6097000007 -72.64 4.73
A6097000001 -60.38 6.19

#Location_(x,y)_[Unit:centimeter]_: 1457.00 1956.00 1443545098 1443545282
A6097000004 -67.17 6.07
A6097000005 -73.18 3.18
A6097000002 -67.02 4.26
A6097000003 -75.17 4.77
A6097000008 -76.18 3.77
A6097000006 -62.84 8.33
A6097000007 -71.21 4.67
A6097000001 -57.90 4.59

#Location_(x,y)_[Unit:centimeter]_: 1448.00 2770.00 1443545320 1443545519
A6097000004 -65.28 7.74
A6097000005 -72.24 3.62
A6097000002 -65.83 7.14
A6097000003 -75.30 5.63
A6097000008 -75.64 4.69
A6097000006 -61.58 7.80
A6097000007 -69.38 5.32
A6097000001 -59.88 5.00

