{
	"Video management":{
		"catalogue videos":"cam007",
		"check quality":{"blue screens":4,
						"broken":false,
						"fps":45},
		"copies videos to NAS":false,
		"deletes videos":false
	},
	"Device management":{
		"heartbeat":{"app":8},
		"cpu usage":{"Collect":4,"Report":7},
		"memory":{"Collect":4,"Report":7},
		"temperature":{"Collect":4,"Report":7},
		"sd card free space":{"Collect":4,"Report":7},
		"network stats":{"ping":true}
	},
	"Control":{
		"re-start failed/crashed apps":false,
		"respond to thing shadow":false
	},
	"App management":{
		"apps/services not found":true,
		"receive and report app crash stack traces":false,
		"report on failure to re-start apps":false,
		"App usage":{"Memory":0.02}
	},
	"Thing Shadow":{
		"serial number":"A0000000050",
		"current ip":"192.168.0.201",
		"version of OmniSensrOS":"5.1.0",
		"list of known apps/services":["WiFiTracker","HealthApp"],
		"frequency":{"Collect":2,"Report":5}
	},
	"Vision Omnisensr app":{
		"recording status":"live",
		"processing status":"dead",
		"high res recording status":"fine"
	}
}