# Unit: [cm]
# enum GUI_model_line_type {LINE_BEGIN = 1, LINE_RIGHT = 2, LINE_LEFT = 3, LINE_UP = 4, LINE_DOWN = 5}
# Format: (x, y)
# Only for the beginning of a new line, put '*' as a preamble, for example (* 0 90)
* 725 3315
227 0
0 -260
0 -106
-67 0
67 0
0 106
215 0
-215 0
0 260
215 0
93 0
174 0
0 -260
-174 0
203 0
-29 0
0 260
29 0
93 0
258 0
0 -260
-258 0
258 0
0 -610
-176 0
176 0
0 -402
-176 0
176 0
0 -468
-133 0
0 -105
-100 0
100 0
0 55
133 0
0 -430
-416 0
416 0
0 -465
-347 0
0 360
-144 0
144 0
0 -360
-403 0
0 360
139 0
-169 0
30 0
0 -360
-345 0
0 360
230 0
-230 0
0 550
108 0
0 -34
89 0
0 -173 
177 0
0 765
-82 0
0 124
-70 0
0 267
0 -95
-220 0
0 557
67 0
-67 0
0 366
* 1545 2445
-354 0
0 -38
0 +38
334 0
0 -20
0 20
20 0
* 1191 2314
0 -321
80 0
0 50
254 0
0 292
0 -292
0 -468
-70 0
136 0
-66 0
0 468
20 0
-20 0
0 -292
* 1494 1470
-303 0
0 -375
104 0
 
