// -- Store[GTE6097]'s Radio Map (in Statistics): -- <OmniSensor_ID> <mean> <std>
#Location_(x,y)_[Unit:meter]_: 1377.00 425.00 1441820281 1441820395
10.7.6.6 -70.44 3.24
10.7.6.5 -72.48 1.90
10.7.6.4 -73.13 2.65
10.7.6.3 -77.36 1.72
10.7.6.8 -76.55 1.91
10.7.6.7 -73.66 3.18
10.7.6.2 -68.30 2.75
10.7.6.1 -65.24 3.05

#Location_(x,y)_[Unit:meter]_: 2235.00 423.00 1441820439 1441820495
10.7.6.6 -70.24 2.22
10.7.6.5 -71.88 3.65
10.7.6.4 -70.81 2.46
10.7.6.3 -75.47 2.27
10.7.6.8 -76.29 2.02
10.7.6.7 -73.65 1.71
10.7.6.2 -67.82 2.41
10.7.6.1 -62.75 2.54

#Location_(x,y)_[Unit:meter]_: 3080.00 449.00 1441820516 1441820584
10.7.6.6 -71.69 2.36
10.7.6.5 -69.44 3.65
10.7.6.4 -70.43 2.50
10.7.6.3 -74.38 3.68
10.7.6.8 -75.73 2.57
10.7.6.7 -76.13 2.39
10.7.6.2 -64.88 2.00
10.7.6.1 -66.80 0.95

#Location_(x,y)_[Unit:meter]_: 3999.00 466.00 1441820663 1441820777
10.7.6.6 -73.04 2.50
10.7.6.5 -65.15 2.80
10.7.6.4 -69.34 2.03
10.7.6.3 -73.79 2.44
10.7.6.8 -74.02 1.87
10.7.6.7 -71.91 2.30
10.7.6.2 -62.75 2.38
10.7.6.1 -68.72 1.32

#Location_(x,y)_[Unit:meter]_: 5275.00 485.00 1441820842 1441820930
10.7.6.6 -76.86 2.97
10.7.6.5 -62.62 2.63
10.7.6.4 -73.93 2.11
10.7.6.3 -65.84 2.42
10.7.6.8 -72.11 2.20
10.7.6.7 -72.80 2.23
10.7.6.2 -66.71 2.71
10.7.6.1 -71.84 2.86

#Location_(x,y)_[Unit:meter]_: 6365.00 649.00 1441820990 1441821078
10.7.6.6 -77.19 2.63
10.7.6.5 -63.81 4.29
10.7.6.4 -74.98 2.09
10.7.6.3 -61.57 3.16
10.7.6.8 -69.62 1.21
10.7.6.7 -72.43 2.17
10.7.6.2 -67.91 3.35
10.7.6.1 -73.32 1.89

#Location_(x,y)_[Unit:meter]_: 7767.00 1387.00 1441821120 1441821209
10.7.6.6 -77.68 2.73
10.7.6.5 -65.82 4.01
10.7.6.4 -77.86 2.10
10.7.6.3 -59.20 3.89
10.7.6.8 -66.14 1.50
10.7.6.7 -74.05 2.31
10.7.6.2 -70.98 2.48
10.7.6.1 -75.52 2.96

#Location_(x,y)_[Unit:meter]_: 6940.00 1533.00 1441821289 1441821369
10.7.6.6 -78.45 2.88
10.7.6.5 -65.68 3.76
10.7.6.4 -77.57 2.88
10.7.6.3 -56.33 2.66
10.7.6.8 -65.82 1.53
10.7.6.7 -74.76 2.10
10.7.6.2 -72.74 2.67
10.7.6.1 -76.20 2.14

#Location_(x,y)_[Unit:meter]_: 6325.00 1191.00 1441821403 1441821516
10.7.6.6 -76.39 4.35
10.7.6.5 -61.52 3.95
10.7.6.4 -75.30 2.37
10.7.6.3 -62.41 2.93
10.7.6.8 -68.73 1.67
10.7.6.7 -70.38 2.37
10.7.6.2 -69.46 1.44
10.7.6.1 -75.79 2.04

#Location_(x,y)_[Unit:meter]_: 5645.00 860.00 1441821558 1441821646
10.7.6.6 -76.55 2.33
10.7.6.5 -57.52 5.71
10.7.6.4 -74.19 1.98
10.7.6.3 -67.61 1.93
10.7.6.8 -70.52 1.96
10.7.6.7 -71.30 2.60
10.7.6.2 -66.62 2.29
10.7.6.1 -75.11 2.57

#Location_(x,y)_[Unit:meter]_: 4947.00 980.00 1441821739 1441821754
10.7.6.6 -76.50 2.50
10.7.6.5 -62.38 1.49
10.7.6.4 -70.50 1.87
10.7.6.3 -69.00 1.50
10.7.6.8 -74.00 3.04
10.7.6.7 -70.62 1.65
10.7.6.2 -60.67 0.94
10.7.6.1 -74.00 1.00

#Location_(x,y)_[Unit:meter]_: 3652.00 911.00 1441822366 1441822452
10.7.6.6 -70.00 3.92
10.7.6.5 -69.38 3.60
10.7.6.4 -65.74 1.93
10.7.6.3 -74.24 2.52
10.7.6.8 -73.50 2.57
10.7.6.7 -70.43 1.58
10.7.6.2 -57.62 2.40
10.7.6.1 -67.26 2.06

#Location_(x,y)_[Unit:meter]_: 1490.00 1001.00 1441822813 1441822905
10.7.6.6 -66.50 4.18
10.7.6.5 -74.64 2.01
10.7.6.4 -72.61 2.43
10.7.6.3 -78.37 2.58
10.7.6.8 -79.08 3.31
10.7.6.7 -74.87 1.93
10.7.6.2 -67.93 1.98
10.7.6.1 -63.86 2.86

#Location_(x,y)_[Unit:meter]_: 1403.00 1489.00 1441822998 1441823096
10.7.6.6 -66.02 1.87
10.7.6.5 -72.80 2.81
10.7.6.4 -72.52 2.33
10.7.6.3 -78.34 2.79
10.7.6.8 -79.70 3.12
10.7.6.7 -76.02 2.77
10.7.6.2 -67.79 2.95
10.7.6.1 -61.48 2.36

#Location_(x,y)_[Unit:meter]_: 1366.00 2378.00 1441823120 1441823228
10.7.6.6 -63.58 2.28
10.7.6.5 -73.06 3.00
10.7.6.4 -71.15 2.52
10.7.6.3 -76.57 2.66
10.7.6.8 -77.70 2.45
10.7.6.7 -74.72 2.93
10.7.6.2 -65.33 3.53
10.7.6.1 -58.96 3.49

#Location_(x,y)_[Unit:meter]_: 1429.00 3399.00 1441823275 1441823371
10.7.6.6 -55.81 3.97
10.7.6.5 -71.77 2.60
10.7.6.4 -69.52 1.66
10.7.6.3 -78.90 2.36
10.7.6.8 -73.83 1.74
10.7.6.7 -69.56 1.51
10.7.6.2 -66.85 1.90
10.7.6.1 -65.10 2.47

#Location_(x,y)_[Unit:meter]_: 2323.00 3502.00 1441823412 1441823497
10.7.6.6 -47.11 6.18
10.7.6.5 -73.00 2.11
10.7.6.4 -65.18 2.77
10.7.6.3 -76.95 2.13
10.7.6.8 -70.94 2.07
10.7.6.7 -70.10 1.18
10.7.6.2 -64.85 1.53
10.7.6.1 -66.23 2.13

#Location_(x,y)_[Unit:meter]_: 2399.00 2710.00 1441823542 1441823557
10.7.6.6 -61.25 2.05
10.7.6.5 -67.00 3.39
10.7.6.4 -59.12 7.80
10.7.6.3 -75.25 3.46
10.7.6.8 -72.00 2.65
10.7.6.7 -69.75 2.17
10.7.6.2 -64.75 2.90
10.7.6.1 -65.12 1.90

#Location_(x,y)_[Unit:meter]_: 2346.00 2746.00 1441823740 1441823819
10.7.6.6 -62.66 3.78
10.7.6.5 -69.20 3.15
10.7.6.4 -61.58 2.57
10.7.6.3 -75.71 2.47
10.7.6.8 -72.88 3.61
10.7.6.7 -68.78 2.07
10.7.6.2 -65.97 1.94
10.7.6.1 -66.68 2.70

#Location_(x,y)_[Unit:meter]_: 2418.00 1815.00 1441823856 1441823957
10.7.6.6 -65.88 2.23
10.7.6.5 -70.94 2.53
10.7.6.4 -65.43 3.14
10.7.6.3 -76.03 2.55
10.7.6.8 -75.01 2.39
10.7.6.7 -70.73 2.10
10.7.6.2 -63.46 2.30
10.7.6.1 -60.07 3.99

#Location_(x,y)_[Unit:meter]_: 2966.00 1806.00 1441824113 1441824414
10.7.6.6 -65.36 4.94
10.7.6.5 -67.65 3.11
10.7.6.4 -55.54 5.44
10.7.6.3 -74.10 4.19
10.7.6.8 -75.51 5.82
10.7.6.7 -64.55 5.35
10.7.6.2 -59.23 2.77
10.7.6.1 -63.63 5.54

#Location_(x,y)_[Unit:meter]_: 2946.00 2776.00 1441824440 1441824534
10.7.6.6 -64.83 5.39
10.7.6.5 -68.33 4.33
10.7.6.4 -57.02 2.63
10.7.6.3 -74.96 2.32
10.7.6.8 -72.54 1.78
10.7.6.7 -65.70 3.38
10.7.6.2 -58.57 2.32
10.7.6.1 -64.04 6.41

#Location_(x,y)_[Unit:meter]_: 2952.00 3751.00 1441824571 1441824667
10.7.6.6 -59.06 3.91
10.7.6.5 -70.88 3.06
10.7.6.4 -56.31 3.54
10.7.6.3 -72.98 2.75
10.7.6.8 -70.67 2.81
10.7.6.7 -63.33 4.68
10.7.6.2 -62.67 2.78
10.7.6.1 -68.33 6.20

#Location_(x,y)_[Unit:meter]_: 3555.00 3728.00 1441824725 1441824819
10.7.6.6 -64.02 3.16
10.7.6.5 -67.13 2.06
10.7.6.4 -63.62 2.20
10.7.6.3 -72.24 2.88
10.7.6.8 -69.70 1.98
10.7.6.7 -62.24 2.54
10.7.6.2 -61.48 1.74
10.7.6.1 -71.09 3.94

#Location_(x,y)_[Unit:meter]_: 3621.00 2765.00 1441824908 1441824998
10.7.6.6 -68.14 3.86
10.7.6.5 -67.23 3.00
10.7.6.4 -62.11 2.49
10.7.6.3 -73.91 3.62
10.7.6.8 -72.27 2.80
10.7.6.7 -65.64 3.42
10.7.6.2 -57.50 3.26
10.7.6.1 -68.73 4.23

#Location_(x,y)_[Unit:meter]_: 3630.00 1869.00 1441825025 1441825118
10.7.6.6 -69.54 4.03
10.7.6.5 -68.52 3.62
10.7.6.4 -64.50 2.77
10.7.6.3 -73.14 3.08
10.7.6.8 -72.55 2.72
10.7.6.7 -66.39 5.57
10.7.6.2 -56.93 6.24
10.7.6.1 -68.93 3.05

#Location_(x,y)_[Unit:meter]_: 4265.00 2106.00 1441825217 1441825281
10.7.6.6 -71.28 2.27
10.7.6.5 -61.33 4.74
10.7.6.4 -65.22 2.04
10.7.6.3 -70.44 3.34
10.7.6.8 -70.53 4.28
10.7.6.7 -66.97 1.29
10.7.6.2 -53.78 3.01
10.7.6.1 -69.56 2.78

#Location_(x,y)_[Unit:meter]_: 4286.00 3655.00 1441825386 1441825483
10.7.6.6 -65.38 5.33
10.7.6.5 -68.31 5.41
10.7.6.4 -67.60 4.75
10.7.6.3 -72.02 2.04
10.7.6.8 -67.54 1.97
10.7.6.7 -53.54 8.19
10.7.6.2 -62.06 4.54
10.7.6.1 -72.40 3.98

#Location_(x,y)_[Unit:meter]_: 4925.00 3673.00 1441825522 1441825612
10.7.6.6 -71.36 4.53
10.7.6.5 -64.82 5.09
10.7.6.4 -69.50 4.77
10.7.6.3 -69.52 2.68
10.7.6.8 -65.61 2.69
10.7.6.7 -58.14 4.53
10.7.6.2 -64.68 3.75
10.7.6.1 -72.82 4.58

#Location_(x,y)_[Unit:meter]_: 4902.00 2285.00 1441825652 1441825755
10.7.6.6 -76.19 3.51
10.7.6.5 -59.00 3.86
10.7.6.4 -69.58 4.65
10.7.6.3 -68.85 3.25
10.7.6.8 -69.84 2.69
10.7.6.7 -69.74 2.52
10.7.6.2 -61.81 3.04
10.7.6.1 -72.38 2.61

#Location_(x,y)_[Unit:meter]_: 4736.00 1008.00 1441826088 1441826171
10.7.6.5 -61.48 2.89
10.7.6.2 -63.81 2.43

#Location_(x,y)_[Unit:meter]_: 5584.00 2197.00 1441826236 1441826327
10.7.6.5 -53.07 5.31
10.7.6.3 -64.45 3.15
10.7.6.8 -67.97 1.59
10.7.6.2 -65.84 2.06

#Location_(x,y)_[Unit:meter]_: 5529.00 3650.00 1441826356 1441826458
10.7.6.6 -73.76 2.62
10.7.6.5 -58.67 4.82
10.7.6.4 -72.47 4.39
10.7.6.3 -67.52 6.67
10.7.6.8 -57.34 6.44
10.7.6.7 -57.61 7.38
10.7.6.2 -65.12 6.05
10.7.6.1 -77.50 3.12

#Location_(x,y)_[Unit:meter]_: 6263.00 3687.00 1441826480 1441826574
10.7.6.6 -75.26 3.64
10.7.6.5 -60.22 2.84
10.7.6.4 -72.48 4.88
10.7.6.3 -67.07 5.27
10.7.6.8 -49.69 4.50
10.7.6.7 -63.63 5.16
10.7.6.2 -65.79 6.18
10.7.6.1 -76.24 3.87

#Location_(x,y)_[Unit:meter]_: 6235.00 2342.00 1441826610 1441826698
10.7.6.6 -76.98 4.01
10.7.6.5 -59.40 3.72
10.7.6.4 -73.71 4.81
10.7.6.3 -60.07 1.60
10.7.6.8 -61.31 2.98
10.7.6.7 -69.76 4.27
10.7.6.2 -69.24 5.12
10.7.6.1 -76.85 3.38

#Location_(x,y)_[Unit:meter]_: 6948.00 2517.00 1441826745 1441826890
10.7.6.6 -76.66 3.08
10.7.6.5 -60.18 3.79
10.7.6.4 -73.20 4.39
10.7.6.3 -58.74 7.89
10.7.6.8 -61.71 3.78
10.7.6.7 -71.11 4.37
10.7.6.2 -69.20 2.45
10.7.6.1 -75.08 3.04

#Location_(x,y)_[Unit:meter]_: 7074.00 3675.00 1441826921 1441827028
10.7.6.6 -70.17 4.87
10.7.6.5 -63.13 3.73
10.7.6.4 -68.65 3.42
10.7.6.3 -62.13 5.66
10.7.6.8 -46.77 6.21
10.7.6.7 -67.46 5.11
10.7.6.2 -71.21 3.21
10.7.6.1 -76.02 2.75

#Location_(x,y)_[Unit:meter]_: 7882.00 2975.00 1441827066 1441827161
10.7.6.6 -75.26 4.18
10.7.6.5 -67.33 2.68
10.7.6.4 -71.59 3.00
10.7.6.3 -63.83 2.86
10.7.6.8 -59.83 2.54
10.7.6.7 -69.33 3.26
10.7.6.2 -70.71 2.98
10.7.6.1 -76.52 1.80

